@startuml
'https://plantuml.com/class-diagram

package audiofiles {
    class AudioFilesMetadataProvider {
        + loadAllMetadata() : List<AudioFileMetadata>
        + loadMetadata(paths) : List<AudioFileMetadata>
    }

    class AudioFilesMetadataIndex {
        + createOrReplaceIndex()
        + update()
    }

    AudioFilesMetadataIndex o-- AudioFilesMetadataProvider
}

class BackupService {
    + backup()
    + backup(plLocation) : Optional<DiskLocation>
    + restore(DiskLocation backupLocation) : Optional<DiskLocation>
}

AudioFilesMetadataProvider -[hidden]down- BackupService

package filesystem {
    package dlscripts {
        class DlBashScriptsDirectory {
            + removeScripts(plLocationName)
        }

        class YtDlBashScriptsWriter {
            + write(partitionsSize, locationName, playlistEntriesAndEntriesPairs)
        }

'        DlBashScriptsDirectory -[hidden]down- YtDlBashScriptsWriter
    }

    package plfiles {
        class SimpleDirectory {
            + transformPathsStream(pathsStreamProcessor) : R
            + transformPathsStream(startPath, pathsStreamProcessor) : R
            + doWithPathsStream(pathsStreamConsumer)
            + doWithPathsStream(startPath, pathsStreamConsumer)
            + cp(sourcePath, destinationPath, copyOptions) : Path
            + mv(sourcePath, destinationPath, copyOptions) : Path
            + rm(path) : boolean
            + resolvePath(path) : Path
        }

        class BackupFilesDirectory extends SimpleDirectory {
            + getBackups() : List<Path>
            + cp(Path source, Path destination) : Path
        }

        class PlaylistFilesDirectory extends SimpleDirectory {
            + cp(Path source, Path destination) : Path
            + mv(Path source, Path destination) : Path
            + rmPathFixes(includeFoundOnly) : PathsRemovalReport
            + applyFound(playlistPath)
            + applyFound()
            + getAllExceptFixes() : List<Path>
            + getFoundAndNotFound() : List<Path>
            + getFoundOnly() : List<Path>
            + getNotFoundOnly() : List<Path>
        }
    }
    plfiles -[hidden]down-- dlscripts
}

@enduml